^\\FREESIA\USERDATA$\STYUEN\DESKTOP\ASSIGNMENT_3\A3\A3\DEBUG\A3.EXE.INTERMEDIATE.MANIFEST
C:\WINDOWS\MICROSOFT.NET\FRAMEWORK\V2.0.50727\MSCORWKS.DLL
C:\WINDOWS\MICROSOFT.NET\FRAMEWORK\V4.0.30319\CLR.DLL
C:\PROGRAM FILES (X86)\MICROSOFT SDKS\WINDOWS\V7.0A\BIN\MT.EXE.CONFIG
\\FREESIA\USERDATA$\STYUEN\DESKTOP\ASSIGNMENT_3\A3\DEBUG\A3.EXE
