^D:\DROPBOX\CMPT225\ASSIGNMENTS\ASSIGNMENT2\WORKSPACE\ASSIGNMENT2\DEBUG\DEQUE.OBJ|D:\DROPBOX\CMPT225\ASSIGNMENTS\ASSIGNMENT2\WORKSPACE\ASSIGNMENT2\DEBUG\TEST.OBJ
D:\DROPBOX\CMPT225\ASSIGNMENTS\ASSIGNMENT2\WORKSPACE\ASSIGNMENT2\DEBUG\ASSIGNMENT2.ILK
D:\DROPBOX\CMPT225\ASSIGNMENTS\ASSIGNMENT2\WORKSPACE\ASSIGNMENT2\DEBUG\ASSIGNMENT2.EXE
D:\DROPBOX\CMPT225\ASSIGNMENTS\ASSIGNMENT2\WORKSPACE\ASSIGNMENT2\DEBUG\ASSIGNMENT2.PDB
