^D:\DROPBOX\CMPT225\ASSIGNMENTS\ASSIGNMENT_3\ASSIGNMENT_3\SORTCOUNT.CPP
/c /ZI /nologo /W3 /WX- /sdl /Od /Oy- /D _MBCS /Gm /EHsc /RTC1 /MDd /GS /fp:precise /Zc:wchar_t /Zc:forScope /Fo"DEBUG\\" /Fd"DEBUG\VC120.PDB" /Gd /TP /analyze- D:\DROPBOX\CMPT225\ASSIGNMENTS\ASSIGNMENT_3\ASSIGNMENT_3\SORTCOUNT.CPP
^D:\DROPBOX\CMPT225\ASSIGNMENTS\ASSIGNMENT_3\ASSIGNMENT_3\ASSIGNMENT_3\SORTCOUNT.CPP
/c /ZI /nologo /W3 /WX- /sdl /Od /Oy- /D _MBCS /Gm /EHsc /RTC1 /MDd /GS /fp:precise /Zc:wchar_t /Zc:forScope /Fo"DEBUG\\" /Fd"DEBUG\VC120.PDB" /Gd /TP /analyze- D:\DROPBOX\CMPT225\ASSIGNMENTS\ASSIGNMENT_3\ASSIGNMENT_3\ASSIGNMENT_3\SORTCOUNT.CPP
